%YAML 1.1
%TAG !u! tag:unity3d.com,2011:
--- !u!114 &11400000
MonoBehaviour:
  m_ObjectHideFlags: 0
  m_CorrespondingSourceObject: {fileID: 0}
  m_PrefabInstance: {fileID: 0}
  m_PrefabAsset: {fileID: 0}
  m_GameObject: {fileID: 0}
  m_Enabled: 1
  m_EditorHideFlags: 0
  m_Script: {fileID: 11500000, guid: 606c115141005f14d9aef18ce4309255, type: 3}
  m_Name: CowData
  m_EditorClassIdentifier: 
  PetType: 1
  Icon: {fileID: 21300000, guid: 1607f132577c19040877f388cf6a5cd7, type: 3}
  SpriteTail: {fileID: 21300000, guid: ceb149706b9e8734ba8cc5f69b593b07, type: 3}
  SkeletonData: {fileID: 11400000, guid: bb768e9b253b1c64b80926b70ebdded4, type: 2}
  AudioQuestion: {fileID: 8300000, guid: a821bab4f81d7574c90a9377854596ec, type: 3}
  AnimationIdle: Idle
  AnimationJump: Jump
  AnimationTail: 
  AnimationSad: Sad
  AnimationNo: No
  SkinDefault: default
  SlotTail: img/Tail
